[
  {
    "model": "compare.resultCompare",
    "pk": 1,
    "fields": {
      "result": "{test:\"test\"}"
    }
  },
  {
    "model": "compare.resultCompare",
    "pk": 2,
    "fields": {
      "result": "{test2:\"test2\"}"
    }
  }
]
